<svg width="40" height="40" viewBox="0 0 40 40" fill="none" xmlns="http://www.w3.org/2000/svg">
<path opacity="0.4" d="M35.0667 11.9833L20 20.7L4.93332 11.9833C5.59999 10.75 6.56665 9.66668 7.64999 9.06668L16.55 4.13334C18.45 3.06668 21.55 3.06668 23.45 4.13334L32.35 9.06668C33.4333 9.66668 34.4 10.75 35.0667 11.9833Z" fill="white"/>
<path opacity="0.6" d="M20 20.7017V36.6683C18.75 36.6683 17.5 36.4017 16.55 35.8683L7.65 30.935C5.63334 29.8183 3.98334 27.0183 3.98334 24.7183V15.285C3.98334 14.2183 4.35 13.0517 4.93334 11.985L20 20.7017Z" fill="white"/>
<path d="M36.0167 15.285V24.7183C36.0167 27.0183 34.3667 29.8183 32.35 30.935L23.45 35.8683C22.5 36.4017 21.25 36.6683 20 36.6683V20.7017L35.0667 11.985C35.65 13.0517 36.0167 14.2183 36.0167 15.285Z" fill="white"/>
</svg>
